create_analytic_cohort — create_analytic_cohort • genieBPC
…
    regimen_drugs = c("Cisplatin, Pemetrexed Disodium"),
    regimen_order = 1,
    regimen_order_type = "within regimen")
    }
#> Welcome, Michael Curry!
#> 
#> [1] "Great job! You are logged into Synapse and\n        can access the GENIE BPC data."
#> Welcome, Michael Curry!
#> 
#> Welcome, Michael Curry!
#> 
#> Welcome, Michael Curry!
#> 
#> $cohort_ca_dx
#> # A tibble: 181 x 152
#>    cohort record_id     institution ca_seq redcap_ca_index ca_cadx_int ca_dx_how
#>    <chr>  <chr>         <chr>        <int> <chr>                 <int> <chr>    
#>  1 NSCLC  GENIE-DFCI-0~ DFCI             0 Yes                   18631 Pathology
#>  2 NSCLC  GENIE-DFCI-0~ DFCI             0 Yes                   23329 Pathology
#>  3 NSCLC  GENIE-DFCI-0~ DFCI             0 Yes                   23944 Pathology
#>  4 NSCLC  GENIE-DFCI-0~ DFCI             0 Yes                   22538 Pathology
#>  5 NSCLC  GENIE-DFCI-0~ DFCI             0 Yes                   25813 Pathology
#>  6 NSCLC  GENIE-DFCI-0~ DFCI             0 Yes                   22189 Pathology
#>  7 NSCLC  GENIE-DFCI-0~ DFCI             0 Yes                   22758 Pathology
#>  8 NSCLC  GENIE-DFCI-0~ DFCI             0 Yes                   24688 Pathology
#>  9 NSCLC  GENIE-DFCI-0~ DFCI             0 Yes                   24831 Pathology
#> 10 NSCLC  GENIE-DFCI-0~ DFCI             0 Yes                   22124 Pathology
#> # ... with 171 more rows, and 145 more variables: dob_next_ca_days <int>,
#> #   tt_first_index_ca <int>, naaccr_first_contact_int <int>, ca_age <int>,
#> #   age_dx <int>, naaccr_site_cd <chr>, ca_site <chr>, ca_d_site <chr>,
#> #   site_recode <chr>, ca_type <chr>, naaccr_histology_cd <int>,
#> #   ca_hist_adeno_squamous <chr>, naaccr_behavior_cd <int>,
#> #   naaccr_laterality_cd <chr>, naaccr_grade <int>, ca_grade_diff <chr>,
#> #   ca_grade <chr>, best_ajcc_stage_cd <chr>, ca_stage_iv <chr>, ...
#> 
#> $cohort_ca_drugs
#> # A tibble: 181 x 101
#>    cohort record_id  ca_seq institution regimen_number redcap_ca_index drugs_num
#>    <chr>  <chr>       <int> <chr>                <int> <chr>               <int>
#>  1 NSCLC  GENIE-DFC~      0 DFCI                     1 Yes                     2
#>  2 NSCLC  GENIE-DFC~      0 DFCI                     1 Yes                     2
#>  3 NSCLC  GENIE-DFC~      0 DFCI                     2 Yes                     2
#>  4 NSCLC  GENIE-DFC~      0 DFCI                     1 Yes                     2
#>  5 NSCLC  GENIE-DFC~      0 DFCI                     2 Yes                     2
#>  6 NSCLC  GENIE-DFC~      0 DFCI                     1 Yes                     2
#>  7 NSCLC  GENIE-DFC~      0 DFCI                     1 Yes                     2
#>  8 NSCLC  GENIE-DFC~      0 DFCI                     1 Yes                     2
#>  9 NSCLC  GENIE-DFC~      0 DFCI                     1 Yes                     2
#> 10 NSCLC  GENIE-DFC~      0 DFCI                     3 Yes                     2
#> # ... with 171 more rows, and 94 more variables: drugs_inst <chr>,
#> #   drugs_firstinst <chr>, drugs_ct_yn <chr>, drugs_dc_ynu <chr>,
#> #   regimen_drugs <chr>, drugs_drug_1 <chr>, drugs_drug_2 <chr>,
#> #   drugs_drug_3 <chr>, drugs_drug_4 <chr>, drugs_drug_5 <lgl>,
#> #   drugs_drug_oth_1 <chr>, drugs_drug_oth_2 <chr>, drugs_drug_oth_3 <lgl>,
#> #   drugs_drug_oth_4 <chr>, drugs_drug_oth_5 <lgl>, drugs_startdt_int_1 <int>,
#> #   drugs_startdt_int_2 <int>, drugs_startdt_int_3 <int>, ...
#> 
#> $cohort_ngs
#> # A tibble: 194 x 27
#>    cohort record_id         ca_seq institution cpt_number cpt_report_int
#>    <chr>  <chr>              <int> <chr>            <int>          <int>
#>  1 NSCLC  GENIE-DFCI-000263      0 DFCI                 1          18689
#>  2 NSCLC  GENIE-DFCI-000583      0 DFCI                 1          25932
#>  3 NSCLC  GENIE-DFCI-000611      0 DFCI                 1          24012
#>  4 NSCLC  GENIE-DFCI-000675      0 DFCI                 1          22604
#>  5 NSCLC  GENIE-DFCI-001319      0 DFCI                 1          25856
#>  6 NSCLC  GENIE-DFCI-002274      0 DFCI                 1          24349
#>  7 NSCLC  GENIE-DFCI-002433      0 DFCI                 1          24923
#>  8 NSCLC  GENIE-DFCI-003133      0 DFCI                 1          25920
#>  9 NSCLC  GENIE-DFCI-003307      0 DFCI                 1          25696
#> 10 NSCLC  GENIE-DFCI-003392      0 DFCI                 1          24054
#> # ... with 184 more rows, and 21 more variables: path_proc_number <int>,
#> #   path_rep_number <int>, cpt_genie_sample_id <chr>, cpt_oncotree_code <chr>,
#> #   cpt_sample_type <chr>, cpt_seq_assay_id <chr>, cpt_order_int <int>,
#> #   cpt_seq_date <int>, dob_cpt_report_days <int>, cpt_report_post_death <int>,
#> #   dx_cpt_rep_days <int>, dx_cpt_rep_mos <dbl>, dx_cpt_rep_yrs <dbl>,
#> #   dx_path_proc_cpt_days <int>, dx_path_proc_cpt_mos <dbl>,
#> #   dx_path_proc_cpt_yrs <dbl>, path_proc_cpt_rep_days <int>, ...
…
